
  doubleToken, intToken, 
 
   forToken,  elseToken, whileToken; ifToken, 


 leftBracketToken,  rightBracketToken,
   
  assignToken, 
  
   
     eofToken,
    
  semicolonToken, 
      
   
   
 
    

   returnToken, 
   
   
   
    
     
   
  
   
   
