0
0
0
0
0
0
0
0
0
0
0
0
0
0
0
0
0
0
0
0
0
2
0
1
0
3
6
11
12
6
21
28
41
70
83
92
130
146
198
188
255
275
309
377
397
407
427
495
493
479
464
450
446
428
469
359
341
301
251
242
217
196
165
135
103
85
81
72
45
41
42
28
18
18
12
6
5
9
3
3
5
3
4
0
1
