0.999 
0.2961727826712716 
0.29462542285113086 
0.31430551915982424 
0.32944334623313387 
0.3412479940434974 
0.35006009044776215 
0.35732603237442667 
0.3597526838083419 
0.3611184158538127 
0.3604541985885974 
0.35834754651964473 
0.35421334122684783 
0.34916784348555674 
0.34446477972266754 
0.3393716912023541 
0.3282407214017997 
0.31909766722864846 
0.3046908391984122 
0.29503748481321695 
0.28572654486190596 
0.2773376891570797 
0.263699341879122 
0.2541759617209797 
0.2438268427004037 
0.23065123807225396 
0.2208224955791304 
0.21179172523567785 
0.20019179515070623 
0.1908934324931895 
0.18161307791992864 
0.1713100186851978 
0.16273890685940934 
0.15401118950073706 
0.1465340203090131 
0.1388194992001514 
0.132069895469993 
0.12493449298481044 
0.11809138035319364 
0.110452383449681 
0.10426357558418477 
0.09704736646036816 
0.09111927388322508 
0.0857712218997246 
0.08033391933728382 
0.07537627890358957 
0.07035605750104333 
0.0656180256569565 
0.06186465460494785 
0.05749896426401521 
0.05355418141455132 
0.050063731046603124 
0.046568220708512124 
0.04312117113115772 
0.03983110177129715 
0.03726233867496587 
0.034312056612375796 
0.03203038050266651 
0.029471752079894043 
0.027629539256705023 
0.025627565560450753 
0.0239706510821825 
0.02241366645283349 
0.020910067189706748 
0.01963056208553495 
0.018524416517829247 
0.017426893886900656 
0.016548160985421317 
0.015417345093108402 
0.014474877590156516 
0.013802610494971489 
0.013222296305508929 
0.012669715922908074 
0.012065484155719052 
0.01164250928765285 
0.011036661803032817 
0.010601185188309768 
0.010325726844903967 
0.0099677516407778 
0.009671314118962333 
0.00937957597529277 
0.009163586800977555 
0.00902717897147897 
0.008729157415212678 
0.008586178468549355 
0.008325551118319006 
0.008216256817488166 
0.008099543465603775 
0.008031623683396326 
0.00779856104433521 
0.007801110427974211 
0.007630065555112684 
0.007617573362302453 
0.007567604628502028 
0.007508864327010698 
0.007502784308950854 
0.007440326907433176 
0.007560883901278452 
0.007484316552830832 
0.007524570393176706 
0.0074735593224684906 
0.007412272332879992 
0.007404139375120664 
0.007316219896257393 
0.0072232053965594865 
0.007296925729829823 
0.007182767355155541 
0.007291540095552564 
0.00725439510881883 
0.007150651775161516 
0.007192999675795625 
0.007185446300565975 
0.007075169345608951 
0.007095116770393792 
0.007097003882121442 
0.0070904370789013045 
0.007042744488520481 
0.007063034506486153 
0.00699782730464574 
0.0070507824106126075 
0.006998258527435875 
0.0069404136347782554 
0.006961061404462745 
0.006968341364136969 
0.007046523905484688 
0.0069910996762699105 
0.006898673137371686 
0.0069719283076682915 
0.0069105110156413895 
0.00701395521392231 
0.006918558648162411 
0.00692082087495288 
0.006885633697225283 
0.006864146279516253 
0.006991510976329674 
0.006971527442632748 
0.006984859637086392 
0.007018619218813614 
0.00694919817949898 
0.00690854767407416 
0.00683392669463257 
0.0067551948121367 
0.0069757845481500875 
0.006960481905456269 
0.006996759654822583 
0.00697076538593932 
0.007003031086433289 
0.006907402624338844 
0.007004677493326825 
0.006890607517597914 
0.006915701652930211 
0.006921037762468989 
0.006923924242149012 
0.006885420374405905 
0.006933910674794717 
0.006941161374261681 
0.006859168545096024 
0.006803638058929596 
0.00692144690139122 
0.006877239171156715 
0.006918738668044356 
0.0068215664048472706 
0.0068480056765182875 
0.006775608910733724 
0.006730109382278548 
0.0067986828823005906 
0.006793812979740782 
0.006764803921899829 
0.006827227977363831 
0.006870028832930651 
0.00688542951819902 
0.0067181163058467365 
0.006759087377447429 
0.00671498996561647 
0.006793524891639396 
0.006778978846487103 
0.006738469326615895 
0.006765613209679092 
0.006745876848758279 
0.006742814532446592 
0.0067559200733220935 
0.006780352368384126 
0.006738621828358837 
0.006738142904315697 
0.006624323941405989 
0.0066981856299383625 
0.006698292140506797 
0.006671036391639214 
0.006685985588156033 
0.0066706771542771985 
0.00666543344582818 
0.006639513717433676 
0.006661465647412687 
0.0066112194870203015 
0.006598678909836218 
0.006619180330141715 
0.006603294881269477 
0.006583579052735021 
0.00659327454192394 
0.00659983916715765 
0.006615119706026219 
0.0066871502475056065 
0.0067034185776209355 
0.006636768534661391 
0.00663290108879879 
0.006689210997507838 
0.00668420196849396 
0.0066505523049786375 
0.006632928878760677 
0.006632954857450413 
0.006566282213460369 
0.006552271235146465 
0.006669789577830742 
0.006626703696713813 
0.006611839737599196 
0.006667388172738679 
0.006711281983571574 
0.006678869991370523 
0.0066632758234795135 
0.006604675505174986 
0.006694491999145671 
0.0067753509306124025 
0.006677665338461545 
0.006693560959081799 
0.006629588854390708 
0.006602130101745457 
0.006600870394478185 
0.006649264948843305 
0.006664659588567352 
0.006585341950550015 
0.006565445421461126 
0.006515877082402705 
0.006510406276753671 
0.006582291137867247 
0.006594835192886595 
0.0066527914968200616 
0.006660857371289479 
0.006602766280848589 
0.006578715703999216 
0.006618260391221973 
0.006573804428374257 
0.006541947081949846 
0.006560099360781987 
0.006536213301707961 
0.006581902607055056 
0.006516863976068412 
0.006646210348250754 
0.006663386934601455 
0.006617952725528305 
0.0067746883316626375 
0.006659406879153497 
0.006723310257830207 
0.006730939139830536 
0.006642127713082279 
0.006701501977290255 
0.006699848844667465 
0.006703425516679116 
0.006665816652761953 
0.006609323952107249 
0.00662849436792435 
0.0066360280690663095 
0.006605346928716886 
0.006556063108082128 
0.006641955768880995 
0.006656137685298324 
0.0066885783816994105 
0.0066772744792300154 
0.006613362445435335 
0.006608319086340071 
0.00657790291346891 
0.006520143708779567 
0.006433325602693817 
0.006435560540980192 
0.006521046818059496 
0.006473071266674955 
0.006532792852399152 
0.006558822714526308 
0.006619872562106144 
0.006572819612634725 
0.006559280581040912 
0.0065483886030039355 
0.006597667781549073 
0.0065534574091378976 
0.006550595076708261 
0.0065166672376592355 
0.006528817007614179 
0.006528199885136475 
0.006570240988210632 
0.006572606477032088 
0.006573821071956229 
0.006696963764656753 
0.006660100908636623 
0.006691991760688043 
0.006708297422378972 
0.006647578928152225 
0.00660657393725163 
0.006645571028856918 
0.006655037938047371 
0.00662175939341615 
0.006600988254276355 
